253 Mini-Project 2
…
new<-article_words%>%select(-c(n,total,tf,idf))
colnames(new)<-c("real/fake","Article_Title","word","tf_idf")

all_words<-
  new%>%
  spread(key = word,tf_idf, fill=0)

bayes<-new%>%
  semi_join(top_words_new,by = c("word","word"))

bayes

## # A tibble: 11,875 x 4
##    `real/fake` Article_Title                                  word   tf_idf
##    <fct>       <fct>                                          <chr>   <dbl>
##  1 real        The Mystery of Trumps Man in Moscow: Carte     0.0138 
##  2 real        The Mystery of Trumps Man in Moscow: Carte page  0.102  
##  3 real        The Mystery of Trumps Man in Moscow: Carte s   0.00899
##  4 real        The Mystery of Trumps Man in Moscow: Carte trump 0.0116 
##  5 real        10 Moments That Mattered From Hillary Clinton trump 0.0339 
##  6 real        10 Moments That Mattered From Hillary Clinton     0.0193 
##  7 real        Is Donald Trump qualified to be president?     s   0.0109 
##  8 real        Clinton vs. Trump: The debate before the deba s   0.0130 
##  9 real        Is Donald Trump qualified to be president?     trump 0.0222 
## 10 real        The Mystery of Trumps Man in Moscow: Carte russ 0.0444 
## #  with 11,865 more rows

words_bayes<-
  bayes%>%
  spread(key = word,tf_idf, fill=0)

words_bayes

## # A tibble: 177 x 726
##    `real/fake` Article_Title   `1` `101`   `11`  `15`  `20` `2012`  `2013`
##    <fct>       <fct>         <dbl> <dbl>  <dbl> <dbl> <dbl>  <dbl>   <dbl>
##  1 fake        'Reporters'      0     0 0          0     0      0 0      
##  2 fake        We Don     0     0 0          0     0      0 0      
##  3 fake        If You Ca     0     0 0          0     0      0 0      
##  4 fake        A Hillary Cl     0     0 0.0112     0     0      0 0      
##  5 fake        "ABC Reveals     0     0 0          0     0      0 0.00852
##  6 fake        ALERT: Polic     0     0 0          0     0      0 0      
##  7 fake        Angela Merke     0     0 0          0     0      0 0      
##  8 fake        Australia Vo     0     0 0          0     0      0 0      
##  9 fake        Bill And Hil     0     0 0          0     0      0 0      
## 10 fake        Bombing Susp     0     0 0          0     0      0 0      
## #  with 167 more rows, and 717 more variables: `2014` <dbl>,
## #   `2015` <dbl>, `2016` <dbl>, `2017` <dbl>, `22` <dbl>, `25` <dbl>,
## #   `27` <dbl>, `3` <dbl>, `4` <dbl>, `5` <dbl>, `50` <dbl>, `8` <dbl>,
## #   `9` <dbl>,  <dbl>,  <dbl>, abc <dbl>, abedin <dbl>, access <dbl>,
## #   act <dbl>, action <dbl>, adan <dbl>, add <dbl>, added <dbl>,
## #   address <dbl>, administration <dbl>, adults <dbl>, advantage <dbl>,
## #   advertisement <dbl>, advice <dbl>, adviser <dbl>, african <dbl>,
## #   agents <dbl>, ago <dbl>, agree <dbl>, ahead <dbl>, ahmad <dbl>,
## #    <dbl>,  <dbl>, aides <dbl>, aids <dbl>, alcohol <dbl>,
…
